{
  "author_ids": [
    "a.P65i30LyFnEP8efR"
  ], 
  "lastedited_iso": "2017-08-30T11:53:30", 
  "group": "", 
  "padid": "fixing-nontrack", 
  "versions": [
    {
      "url": "http://192.168.73.188:9001/p/fixing-nontrack", 
      "code": 200, 
      "type": "pad"
    }, 
    {
      "url": "./fixing-nontrack.raw.txt", 
      "path": "./fixing-nontrack.raw.txt", 
      "code": 200, 
      "type": "text"
    }, 
    {
      "url": "./fixing-nontrack.diff.html", 
      "path": "./fixing-nontrack.diff.html", 
      "code": 200, 
      "type": "diffhtml"
    }, 
    {
      "url": "./fixing-nontrack.raw.html", 
      "path": "./fixing-nontrack.raw.html", 
      "code": 200, 
      "type": "html"
    }, 
    {
      "url": "./fixing-nontrack.meta.json", 
      "path": "./fixing-nontrack.meta.json", 
      "type": "meta"
    }
  ], 
  "lastedited_raw": 1504086810571, 
  "pad": "fixing-nontrack", 
  "pathbase": "./fixing-nontrack", 
  "revisions": 122
}