{
  "author_ids": [
    "a.d3QBG70NDiJIblSl"
  ], 
  "lastedited_iso": "2017-08-30T17:49:15", 
  "group": "", 
  "padid": "gnu-is-not-exploding", 
  "versions": [
    {
      "url": "http://192.168.73.188:9001/p/gnu-is-not-exploding", 
      "code": 200, 
      "type": "pad"
    }, 
    {
      "url": "./gnu-is-not-exploding.raw.txt", 
      "path": "./gnu-is-not-exploding.raw.txt", 
      "code": 200, 
      "type": "text"
    }, 
    {
      "url": "./gnu-is-not-exploding.diff.html", 
      "path": "./gnu-is-not-exploding.diff.html", 
      "code": 200, 
      "type": "diffhtml"
    }, 
    {
      "url": "./gnu-is-not-exploding.raw.html", 
      "path": "./gnu-is-not-exploding.raw.html", 
      "code": 200, 
      "type": "html"
    }, 
    {
      "url": "./gnu-is-not-exploding.meta.json", 
      "path": "./gnu-is-not-exploding.meta.json", 
      "type": "meta"
    }
  ], 
  "lastedited_raw": 1504108155464, 
  "pad": "gnu-is-not-exploding", 
  "pathbase": "./gnu-is-not-exploding", 
  "revisions": 54
}