["#B26146",
"#6A332C",
"#6C3725",
"#954838",
"#A14E3C",
"#A45433",
"#A34D36",
"#9D4A38",
"#96483C",
"#923F2D",
"#A04528",
"#9D513A",
"#7F4039",
"#A4583E",
"#C56E43",
"#B1654B",
"#C8734A",
"#D9936F",
"#88513D",
"#7B3B31",
"#B35F43",
"#652E27",
"#693426",
"#8C4237",
"#9B4D40",
"#964E35",
"#9A4E3E",
"#9C5446",
"#A06D5C",
"#A7755A",
"#914933",
"#822E24",
"#863E30",
"#9B4E32",
"#C46746",
"#BB6244",
"#944630",
"#E79B6A",
"#BE8558",
"#1A0608",
"#B46143",
"#632C27",
"#65332A",
"#833D35",
"#8F4941",
"#884636",
"#88483C",
"#8E5248",
"#AB7A6C",
"#D3A293",
"#D0A295",
"#96655E",
"#581C12",
"#9E533C",
"#A65739",
"#A3553E",
"#BA5740",
"#AE5F36",
"#4B3528",
"#1C1119",
"#AE5D3F",
"#5E2923",
"#602D2A",
"#844037",
"#884238",
"#804034",
"#864738",
"#8C5143",
"#A96B5C",
"#CF9893",
"#E7C3B7",
"#E0CEC0",
"#7B5757",
"#984A3E",
"#81351D",
"#45251A",
"#C06A49",
"#5A2F29",
"#0C0515",
"#321D22",
"#AF6042",
"#5D2B24",
"#5C2A2B",
"#904B3C",
"#89402F",
"#7F3A2B",
"#924B37",
"#A15E4B",
"#C4866F",
"#CB9885",
"#CA9A84",
"#DAB6AA",
"#DDBBBA",
"#B26257",
"#843622",
"#817A74",
"#DAB5A3",
"#352528",
"#140812",
"#6E4940",
"#B46749",
"#602E27",
"#5B2729",
"#A05A41",
"#984E33",
"#7E3427",
"#9D523D",
"#B46B58",
"#C47F6F",
"#C38066",
"#D2947D",
"#C69183",
"#BC8B7D",
"#C28A73",
"#CF9B85",
"#EECCC2",
"#C49C92",
"#2B181A",
"#3B2728",
"#B67358",
"#B8694A",
"#602E25",
"#562322",
"#A56041",
"#B36A4A",
"#843A2F",
"#A15545",
"#A55D51",
"#985C5E",
"#9D6362",
"#7B473C",
"#9A6651",
"#BD8876",
"#D6B39F",
"#D8B59F",
"#BD7E6F",
"#6E3D2F",
"#1B0D1A",
"#8C5B4D",
"#BF7256",
"#BB6B4A",
"#653126",
"#55221F",
"#A2603D",
"#C7815F",
"#89423C",
"#975147",
"#813C37",
"#3F2433",
"#17152D",
"#56373C",
"#B97866",
"#CC9C92",
"#9C7675",
"#986053",
"#804632",
"#111217",
"#442C2C",
"#BB785D",
"#A86C50",
"#BD6D48",
"#6D2D21",
"#64292B",
"#804233",
"#B97252",
"#964834",
"#683639",
"#1C232B",
"#19110F",
"#502F26",
"#B29188",
"#D08C7F",
"#EDA686",
"#965C51",
"#4E2931",
"#3E261C",
"#160C15",
"#754C48",
"#B57A5C",
"#A36B54",
"#C06F54",
"#622E21",
"#662D26",
"#904130",
"#97553F",
"#5F3A34",
"#2A1420",
"#1F121C",
"#5D3639",
"#BA837E",
"#926256",
"#BF6C66",
"#FBB09D",
"#B47C6D",
"#381917",
"#2D1D1E",
"#3B2321",
"#A76C5C",
"#AD6E4F",
"#98644F",
"#C1735C",
"#6D3127",
"#6C2F2A",
"#A26054",
"#5B362E",
"#2F2935",
"#251A2B",
"#3A1C1C",
"#B68171",
"#925B58",
"#54281B",
"#B6614D",
"#C37861",
"#482418",
"#3E3331",
"#281E1D",
"#5E3A2E",
"#B67057",
"#AA6A51",
"#8E5D4C",
"#C3704E",
"#833A31",
"#753E44",
"#533439",
"#2F282F",
"#383644",
"#29141D",
"#775148",
"#AA705A",
"#AF5348",
"#BF7363",
"#C06958",
"#CB7A67",
"#76352F",
"#502C30",
"#42272E",
"#7D503D",
"#B26E57",
"#925747",
"#9B654D",
"#CE724D",
"#843C30",
"#53313F",
"#383045",
"#2C242F",
"#311C1B",
"#6A4942",
"#6D4A44",
"#702D1A",
"#DF6C59",
"#D57964",
"#A84B3A",
"#D9816D",
"#8A4943",
"#401B23",
"#653938",
"#976147",
"#A56654",
"#8F5444",
"#CC895E",
"#C5734D",
"#7E3830",
"#402536",
"#30354B",
"#402F35",
"#69372C",
"#764E44",
"#2C2020",
"#7E3628",
"#C45E48",
"#B15B42",
"#C25B48",
"#C6765D",
"#482C28",
"#261D22",
"#81503F",
"#AD6E4D",
"#8D5345",
"#A4634D",
"#F6AC6D",
"#C77952",
"#85423A",
"#3A2534",
"#22293B",
"#5A434D",
"#9B6563",
"#4B2824",
"#161513",
"#662E31",
"#B75441",
"#B04E31",
"#C55F51",
"#7F463B",
"#270F0F",
"#351B1C",
"#8E5B4A",
"#B6765A",
"#83544A",
"#AD6F58",
"#FFC384",
"#CF734C",
"#733E30",
"#1E1822",
"#3C3A4F",
"#725269",
"#553540",
"#241512",
"#311F1B",
"#361E1A",
"#6F3126",
"#AF6042",
"#D17961",
"#563B30",
"#0B050F",
"#3D2024",
"#81533B",
"#945D48",
"#674442",
"#A5715C",
"#F4CF98",
"#D37957",
"#694535",
"#1F1820",
"#402B34",
"#44424F",
"#56425D",
"#382426",
"#281D1B",
"#281822",
"#7C3A2A",
"#B05542",
"#C06E59",
"#E19E81",
"#997663",
"#351D19",
"#79483A",
"#7E5342",
"#4D2724",
"#C5865A",
"#CC8C68",
"#D97C5A",
"#5F392C",
"#1A1720",
"#332024",
"#2F2933",
"#64526C",
"#554244",
"#27120F",
"#502924",
"#91452E",
"#B8583F",
"#BF6449",
"#DB8C6B",
"#FFCEB8",
"#926C61",
"#7B4634",
"#8C5C48",
"#9C634F",
"#FEB779",
"#86442C",
"#DB7A57",
"#603830",
"#171721",
"#2B1D1C",
"#31262E",
"#54425C",
"#3E3030",
"#42211C",
"#783626",
"#A45038",
"#BB593E",
"#B75538",
"#C46D4F",
"#F7B59D",
"#D8A496",
"#744334",
"#70463A",
"#C88664",
"#E19863",
"#57251C",
"#D77550",
"#623731",
"#121621",
"#291E1A",
"#38292E",
"#44324C",
"#241818",
"#512921",
"#90422E",
"#AD5843",
"#B85C43",
"#B3553B",
"#B66047",
"#D8917D",
"#F0BBAD",
"#6C4138",
"#311917",
"#B1734E",
"#894930",
"#371D20"]

