{
  "author_ids": [], 
  "lastedited_iso": "2017-09-01T12:03:51", 
  "group": "", 
  "padid": "hello-world", 
  "versions": [
    {
      "url": "http://192.168.73.188:9001/p/hello-world", 
      "code": 200, 
      "type": "pad"
    }, 
    {
      "url": "./hello-world.raw.txt", 
      "path": "./hello-world.raw.txt", 
      "code": 200, 
      "type": "text"
    }, 
    {
      "url": "./hello-world.diff.html", 
      "path": "./hello-world.diff.html", 
      "code": 200, 
      "type": "diffhtml"
    }, 
    {
      "url": "./hello-world.raw.html", 
      "path": "./hello-world.raw.html", 
      "code": 200, 
      "type": "html"
    }, 
    {
      "url": "./hello-world.meta.json", 
      "path": "./hello-world.meta.json", 
      "type": "meta"
    }
  ], 
  "lastedited_raw": 1504260231549, 
  "pad": "hello-world", 
  "pathbase": "./hello-world", 
  "revisions": 1
}