{
  "author_ids": [
    "a.0yzralYuIlrV5YJd", 
    "a.QeUUJc2XXAbjoY6z", 
    "a.XmcO47pJGYHG9bLn", 
    "a.uOBhFxZIokEoJlQe", 
    "a.QL6DpYiqRmo1lrZX", 
    "a.KFv7LrOBNRovkLb2", 
    "a.kYkoSwoBYpPf4a4j", 
    "a.MpHSOtMGOyh0MaUt", 
    "a.3I6MSeGZBSI6yqJY"
  ], 
  "lastedited_iso": "2017-08-29T12:47:14", 
  "group": "", 
  "padid": "local_network_carousel", 
  "versions": [
    {
      "url": "http://192.168.73.188:9001/p/local_network_carousel", 
      "code": 200, 
      "type": "pad"
    }, 
    {
      "url": "./local_network_carousel.raw.txt", 
      "path": "./local_network_carousel.raw.txt", 
      "code": 200, 
      "type": "text"
    }, 
    {
      "url": "./local_network_carousel.diff.html", 
      "path": "./local_network_carousel.diff.html", 
      "code": 200, 
      "type": "diffhtml"
    }, 
    {
      "url": "./local_network_carousel.raw.html", 
      "path": "./local_network_carousel.raw.html", 
      "code": 200, 
      "type": "html"
    }, 
    {
      "url": "./local_network_carousel.meta.json", 
      "path": "./local_network_carousel.meta.json", 
      "type": "meta"
    }
  ], 
  "lastedited_raw": 1504003634766, 
  "pad": "local_network_carousel", 
  "pathbase": "./local_network_carousel", 
  "revisions": 680
}