{
  "author_ids": [
    "a.GaoiiEIQAiQXfaqT"
  ], 
  "lastedited_iso": "2017-09-02T16:50:32", 
  "group": "", 
  "padid": "unibash-build", 
  "versions": [
    {
      "url": "http://192.168.73.188:9001/p/unibash-build", 
      "code": 200, 
      "type": "pad"
    }, 
    {
      "url": "./unibash-build.raw.txt", 
      "path": "./unibash-build.raw.txt", 
      "code": 200, 
      "type": "text"
    }, 
    {
      "url": "./unibash-build.diff.html", 
      "path": "./unibash-build.diff.html", 
      "code": 200, 
      "type": "diffhtml"
    }, 
    {
      "url": "./unibash-build.raw.html", 
      "path": "./unibash-build.raw.html", 
      "code": 200, 
      "type": "html"
    }, 
    {
      "url": "./unibash-build.meta.json", 
      "path": "./unibash-build.meta.json", 
      "type": "meta"
    }
  ], 
  "lastedited_raw": 1504363832672, 
  "pad": "unibash-build", 
  "pathbase": "./unibash-build", 
  "revisions": 2
}